<?xml version="1.0" encoding="UTF-8" standalone="no"?>
<svg
   xmlns:svg="http://www.w3.org/2000/svg"
   xmlns="http://www.w3.org/2000/svg"
   width="297mm"
   height="210mm"
   id="svg3276">
  <defs
     id="defs3278" />
  <g
     id="layer1">
    <rect
       width="52.671261"
       height="52.671261"
       rx="7.7852464"
       x="36.852917"
       y="129.41629"
       style="opacity:1;fill:none;fill-opacity:1;stroke:#000000;stroke-width:2.25;stroke-linecap:square;stroke-linejoin:miter;stroke-miterlimit:4;stroke-dasharray:none;stroke-dashoffset:0;stroke-opacity:1"
       id="rect3285" />
    <rect
       width="52.671261"
       height="52.671261"
       rx="7.7852464"
       ry="7.7852464"
       x="102.75843"
       y="129.41629"
       style="fill:none;fill-opacity:1;stroke:#000000;stroke-width:2.25;stroke-linecap:square;stroke-linejoin:miter;stroke-miterlimit:4;stroke-dasharray:none;stroke-dashoffset:0;stroke-opacity:1"
       id="use3769" />
    <rect
       width="52.671261"
       height="52.671261"
       rx="7.7852464"
       ry="7.7852464"
       x="168.66394"
       y="129.41629"
       style="fill:none;fill-opacity:1;stroke:#000000;stroke-width:2.25;stroke-linecap:square;stroke-linejoin:miter;stroke-miterlimit:4;stroke-dasharray:none;stroke-dashoffset:0;stroke-opacity:1"
       id="use3771" />
    <rect
       width="52.671261"
       height="52.671261"
       rx="7.7852464"
       ry="7.7852464"
       x="234.56946"
       y="129.41629"
       style="fill:none;fill-opacity:1;stroke:#000000;stroke-width:2.25;stroke-linecap:square;stroke-linejoin:miter;stroke-miterlimit:4;stroke-dasharray:none;stroke-dashoffset:0;stroke-opacity:1"
       id="use3773" />
    <rect
       width="52.671261"
       height="52.671261"
       rx="7.7852464"
       ry="7.7852464"
       x="300.47498"
       y="129.41629"
       style="fill:none;fill-opacity:1;stroke:#000000;stroke-width:2.25;stroke-linecap:square;stroke-linejoin:miter;stroke-miterlimit:4;stroke-dasharray:none;stroke-dashoffset:0;stroke-opacity:1"
       id="use3775" />
    <rect
       width="52.671261"
       height="52.671261"
       rx="7.7852464"
       ry="7.7852464"
       x="366.38049"
       y="129.41629"
       style="fill:none;fill-opacity:1;stroke:#000000;stroke-width:2.25;stroke-linecap:square;stroke-linejoin:miter;stroke-miterlimit:4;stroke-dasharray:none;stroke-dashoffset:0;stroke-opacity:1"
       id="use3777" />
    <rect
       width="52.671261"
       height="52.671261"
       rx="7.7852464"
       ry="7.7852464"
       x="432.28601"
       y="129.41629"
       style="fill:none;fill-opacity:1;stroke:#000000;stroke-width:2.25;stroke-linecap:square;stroke-linejoin:miter;stroke-miterlimit:4;stroke-dasharray:none;stroke-dashoffset:0;stroke-opacity:1"
       id="use3779" />
    <rect
       width="52.671261"
       height="52.671261"
       rx="7.7852464"
       ry="7.7852464"
       x="498.1915"
       y="129.41629"
       style="fill:none;fill-opacity:1;stroke:#000000;stroke-width:2.25;stroke-linecap:square;stroke-linejoin:miter;stroke-miterlimit:4;stroke-dasharray:none;stroke-dashoffset:0;stroke-opacity:1"
       id="use3781" />
    <rect
       width="52.671261"
       height="52.671261"
       rx="7.7852464"
       ry="7.7852464"
       x="564.09705"
       y="129.41629"
       style="fill:none;fill-opacity:1;stroke:#000000;stroke-width:2.25;stroke-linecap:square;stroke-linejoin:miter;stroke-miterlimit:4;stroke-dasharray:none;stroke-dashoffset:0;stroke-opacity:1"
       id="use3783" />
    <rect
       width="52.671261"
       height="52.671261"
       rx="7.7852464"
       ry="7.7852464"
       x="630.00256"
       y="129.41629"
       style="fill:none;fill-opacity:1;stroke:#000000;stroke-width:2.25;stroke-linecap:square;stroke-linejoin:miter;stroke-miterlimit:4;stroke-dasharray:none;stroke-dashoffset:0;stroke-opacity:1"
       id="use3785" />
    <rect
       width="52.671261"
       height="52.671261"
       rx="7.7852464"
       ry="7.7852464"
       x="695.90802"
       y="129.41629"
       style="fill:none;fill-opacity:1;stroke:#000000;stroke-width:2.25;stroke-linecap:square;stroke-linejoin:miter;stroke-miterlimit:4;stroke-dasharray:none;stroke-dashoffset:0;stroke-opacity:1"
       id="use3787" />
    <rect
       width="52.671261"
       height="52.671261"
       rx="7.7852464"
       ry="7.7852464"
       x="761.81354"
       y="129.41629"
       style="fill:none;fill-opacity:1;stroke:#000000;stroke-width:2.25;stroke-linecap:square;stroke-linejoin:miter;stroke-miterlimit:4;stroke-dasharray:none;stroke-dashoffset:0;stroke-opacity:1"
       id="use3789" />
    <rect
       width="52.671261"
       height="52.671261"
       rx="7.7852464"
       ry="7.7852464"
       x="827.71906"
       y="129.41629"
       style="fill:none;fill-opacity:1;stroke:#000000;stroke-width:2.25;stroke-linecap:square;stroke-linejoin:miter;stroke-miterlimit:4;stroke-dasharray:none;stroke-dashoffset:0;stroke-opacity:1"
       id="use3791" />
    <rect
       width="52.671261"
       height="52.671261"
       rx="7.7852464"
       ry="7.7852464"
       x="128.68188"
       y="196.81883"
       style="fill:none;fill-opacity:1;stroke:#000000;stroke-width:2.25;stroke-linecap:square;stroke-linejoin:miter;stroke-miterlimit:4;stroke-dasharray:none;stroke-dashoffset:0;stroke-opacity:1"
       id="use3797" />
    <rect
       width="52.671261"
       height="52.671261"
       rx="7.7852464"
       ry="7.7852464"
       x="145.41165"
       y="264.22134"
       style="fill:none;fill-opacity:1;stroke:#000000;stroke-width:2.25;stroke-linecap:square;stroke-linejoin:miter;stroke-miterlimit:4;stroke-dasharray:none;stroke-dashoffset:0;stroke-opacity:1"
       id="use3799" />
    <rect
       width="52.671261"
       height="52.671261"
       rx="7.7852464"
       ry="7.7852464"
       x="194.43207"
       y="196.75412"
       style="fill:none;fill-opacity:1;stroke:#000000;stroke-width:2.25;stroke-linecap:square;stroke-linejoin:miter;stroke-miterlimit:4;stroke-dasharray:none;stroke-dashoffset:0;stroke-opacity:1"
       id="use3801" />
    <rect
       width="52.671261"
       height="52.671261"
       rx="7.7852464"
       ry="7.7852464"
       x="260.18225"
       y="196.75412"
       style="fill:none;fill-opacity:1;stroke:#000000;stroke-width:2.25;stroke-linecap:square;stroke-linejoin:miter;stroke-miterlimit:4;stroke-dasharray:none;stroke-dashoffset:0;stroke-opacity:1"
       id="use3803" />
    <rect
       width="52.671261"
       height="52.671261"
       rx="7.7852464"
       ry="7.7852464"
       x="325.93243"
       y="196.75412"
       style="fill:none;fill-opacity:1;stroke:#000000;stroke-width:2.25;stroke-linecap:square;stroke-linejoin:miter;stroke-miterlimit:4;stroke-dasharray:none;stroke-dashoffset:0;stroke-opacity:1"
       id="use3805" />
    <rect
       width="52.671261"
       height="52.671261"
       rx="7.7852464"
       ry="7.7852464"
       x="391.68259"
       y="196.75412"
       style="fill:none;fill-opacity:1;stroke:#000000;stroke-width:2.25;stroke-linecap:square;stroke-linejoin:miter;stroke-miterlimit:4;stroke-dasharray:none;stroke-dashoffset:0;stroke-opacity:1"
       id="use3807" />
    <rect
       width="52.671261"
       height="52.671261"
       rx="7.7852464"
       ry="7.7852464"
       x="457.43277"
       y="196.75412"
       style="fill:none;fill-opacity:1;stroke:#000000;stroke-width:2.25;stroke-linecap:square;stroke-linejoin:miter;stroke-miterlimit:4;stroke-dasharray:none;stroke-dashoffset:0;stroke-opacity:1"
       id="use3809" />
    <rect
       width="52.671261"
       height="52.671261"
       rx="7.7852464"
       ry="7.7852464"
       x="523.18292"
       y="196.75412"
       style="fill:none;fill-opacity:1;stroke:#000000;stroke-width:2.25;stroke-linecap:square;stroke-linejoin:miter;stroke-miterlimit:4;stroke-dasharray:none;stroke-dashoffset:0;stroke-opacity:1"
       id="use3811" />
    <rect
       width="52.671261"
       height="52.671261"
       rx="7.7852464"
       ry="7.7852464"
       x="588.93311"
       y="196.75412"
       style="fill:none;fill-opacity:1;stroke:#000000;stroke-width:2.25;stroke-linecap:square;stroke-linejoin:miter;stroke-miterlimit:4;stroke-dasharray:none;stroke-dashoffset:0;stroke-opacity:1"
       id="use3813" />
    <rect
       width="52.671261"
       height="52.671261"
       rx="7.7852464"
       ry="7.7852464"
       x="654.68329"
       y="196.75412"
       style="fill:none;fill-opacity:1;stroke:#000000;stroke-width:2.25;stroke-linecap:square;stroke-linejoin:miter;stroke-miterlimit:4;stroke-dasharray:none;stroke-dashoffset:0;stroke-opacity:1"
       id="use3815" />
    <rect
       width="52.671261"
       height="52.671261"
       rx="7.7852464"
       ry="7.7852464"
       x="720.43347"
       y="196.75412"
       style="fill:none;fill-opacity:1;stroke:#000000;stroke-width:2.25;stroke-linecap:square;stroke-linejoin:miter;stroke-miterlimit:4;stroke-dasharray:none;stroke-dashoffset:0;stroke-opacity:1"
       id="use3817" />
    <rect
       width="52.671261"
       height="52.671261"
       rx="7.7852464"
       ry="7.7852464"
       x="786.18365"
       y="196.75412"
       style="fill:none;fill-opacity:1;stroke:#000000;stroke-width:2.25;stroke-linecap:square;stroke-linejoin:miter;stroke-miterlimit:4;stroke-dasharray:none;stroke-dashoffset:0;stroke-opacity:1"
       id="use3819" />
    <rect
       width="52.671261"
       height="52.671261"
       rx="7.7852464"
       ry="7.7852464"
       x="851.93384"
       y="196.75412"
       style="fill:none;fill-opacity:1;stroke:#000000;stroke-width:2.25;stroke-linecap:square;stroke-linejoin:miter;stroke-miterlimit:4;stroke-dasharray:none;stroke-dashoffset:0;stroke-opacity:1"
       id="use3821" />
    <rect
       width="52.671261"
       height="52.671261"
       rx="7.7852464"
       ry="7.7852464"
       x="111.16536"
       y="331.62384"
       style="fill:none;fill-opacity:1;stroke:#000000;stroke-width:2.25;stroke-linecap:square;stroke-linejoin:miter;stroke-miterlimit:4;stroke-dasharray:none;stroke-dashoffset:0;stroke-opacity:1"
       id="use3847" />
    <rect
       width="52.671261"
       height="52.671261"
       rx="7.7852464"
       ry="7.7852464"
       x="211.31717"
       y="264.22134"
       style="fill:none;fill-opacity:1;stroke:#000000;stroke-width:2.25;stroke-linecap:square;stroke-linejoin:miter;stroke-miterlimit:4;stroke-dasharray:none;stroke-dashoffset:0;stroke-opacity:1"
       id="use3849" />
    <rect
       width="52.671261"
       height="52.671261"
       rx="7.7852464"
       ry="7.7852464"
       x="277.22269"
       y="264.22134"
       style="fill:none;fill-opacity:1;stroke:#000000;stroke-width:2.25;stroke-linecap:square;stroke-linejoin:miter;stroke-miterlimit:4;stroke-dasharray:none;stroke-dashoffset:0;stroke-opacity:1"
       id="use3851" />
    <rect
       width="52.671261"
       height="52.671261"
       rx="7.7852464"
       ry="7.7852464"
       x="343.1282"
       y="264.22134"
       style="fill:none;fill-opacity:1;stroke:#000000;stroke-width:2.25;stroke-linecap:square;stroke-linejoin:miter;stroke-miterlimit:4;stroke-dasharray:none;stroke-dashoffset:0;stroke-opacity:1"
       id="use3853" />
    <rect
       width="52.671261"
       height="52.671261"
       rx="7.7852464"
       ry="7.7852464"
       x="409.03369"
       y="264.22134"
       style="fill:none;fill-opacity:1;stroke:#000000;stroke-width:2.25;stroke-linecap:square;stroke-linejoin:miter;stroke-miterlimit:4;stroke-dasharray:none;stroke-dashoffset:0;stroke-opacity:1"
       id="use3855" />
    <rect
       width="52.671261"
       height="52.671261"
       rx="7.7852464"
       ry="7.7852464"
       x="474.93921"
       y="264.22134"
       style="fill:none;fill-opacity:1;stroke:#000000;stroke-width:2.25;stroke-linecap:square;stroke-linejoin:miter;stroke-miterlimit:4;stroke-dasharray:none;stroke-dashoffset:0;stroke-opacity:1"
       id="use3857" />
    <rect
       width="52.671261"
       height="52.671261"
       rx="7.7852464"
       ry="7.7852464"
       x="540.84473"
       y="264.22134"
       style="fill:none;fill-opacity:1;stroke:#000000;stroke-width:2.25;stroke-linecap:square;stroke-linejoin:miter;stroke-miterlimit:4;stroke-dasharray:none;stroke-dashoffset:0;stroke-opacity:1"
       id="use3859" />
    <rect
       width="52.671261"
       height="52.671261"
       rx="7.7852464"
       ry="7.7852464"
       x="606.75024"
       y="264.22134"
       style="fill:none;fill-opacity:1;stroke:#000000;stroke-width:2.25;stroke-linecap:square;stroke-linejoin:miter;stroke-miterlimit:4;stroke-dasharray:none;stroke-dashoffset:0;stroke-opacity:1"
       id="use3861" />
    <rect
       width="52.671261"
       height="52.671261"
       rx="7.7852464"
       ry="7.7852464"
       x="672.65576"
       y="264.22134"
       style="fill:none;fill-opacity:1;stroke:#000000;stroke-width:2.25;stroke-linecap:square;stroke-linejoin:miter;stroke-miterlimit:4;stroke-dasharray:none;stroke-dashoffset:0;stroke-opacity:1"
       id="use3863" />
    <rect
       width="52.671261"
       height="52.671261"
       rx="7.7852464"
       ry="7.7852464"
       x="738.56128"
       y="264.22134"
       style="fill:none;fill-opacity:1;stroke:#000000;stroke-width:2.25;stroke-linecap:square;stroke-linejoin:miter;stroke-miterlimit:4;stroke-dasharray:none;stroke-dashoffset:0;stroke-opacity:1"
       id="use3865" />
    <rect
       width="52.671261"
       height="52.671261"
       rx="7.7852464"
       ry="7.7852464"
       x="804.4668"
       y="264.22134"
       style="fill:none;fill-opacity:1;stroke:#000000;stroke-width:2.25;stroke-linecap:square;stroke-linejoin:miter;stroke-miterlimit:4;stroke-dasharray:none;stroke-dashoffset:0;stroke-opacity:1"
       id="use3867" />
    <rect
       width="52.671261"
       height="52.671261"
       rx="7.7852464"
       ry="7.7852464"
       x="870.37231"
       y="264.22134"
       style="fill:none;fill-opacity:1;stroke:#000000;stroke-width:2.25;stroke-linecap:square;stroke-linejoin:miter;stroke-miterlimit:4;stroke-dasharray:none;stroke-dashoffset:0;stroke-opacity:1"
       id="use3869" />
    <rect
       width="52.671261"
       height="52.671261"
       rx="7.7852464"
       ry="7.7852464"
       x="177.07086"
       y="331.62384"
       style="fill:none;fill-opacity:1;stroke:#000000;stroke-width:2.25;stroke-linecap:square;stroke-linejoin:miter;stroke-miterlimit:4;stroke-dasharray:none;stroke-dashoffset:0;stroke-opacity:1"
       id="use3899" />
    <rect
       width="52.671261"
       height="52.671261"
       rx="7.7852464"
       ry="7.7852464"
       x="242.97638"
       y="331.62384"
       style="fill:none;fill-opacity:1;stroke:#000000;stroke-width:2.25;stroke-linecap:square;stroke-linejoin:miter;stroke-miterlimit:4;stroke-dasharray:none;stroke-dashoffset:0;stroke-opacity:1"
       id="use3901" />
    <rect
       width="52.671261"
       height="52.671261"
       rx="7.7852464"
       ry="7.7852464"
       x="308.8819"
       y="331.62384"
       style="fill:none;fill-opacity:1;stroke:#000000;stroke-width:2.25;stroke-linecap:square;stroke-linejoin:miter;stroke-miterlimit:4;stroke-dasharray:none;stroke-dashoffset:0;stroke-opacity:1"
       id="use3903" />
    <rect
       width="52.671261"
       height="52.671261"
       rx="7.7852464"
       ry="7.7852464"
       x="374.78741"
       y="331.62384"
       style="fill:none;fill-opacity:1;stroke:#000000;stroke-width:2.25;stroke-linecap:square;stroke-linejoin:miter;stroke-miterlimit:4;stroke-dasharray:none;stroke-dashoffset:0;stroke-opacity:1"
       id="use3905" />
    <rect
       width="52.671261"
       height="52.671261"
       rx="7.7852464"
       ry="7.7852464"
       x="440.69293"
       y="331.62384"
       style="fill:none;fill-opacity:1;stroke:#000000;stroke-width:2.25;stroke-linecap:square;stroke-linejoin:miter;stroke-miterlimit:4;stroke-dasharray:none;stroke-dashoffset:0;stroke-opacity:1"
       id="use3907" />
    <rect
       width="52.671261"
       height="52.671261"
       rx="7.7852464"
       ry="7.7852464"
       x="506.59845"
       y="331.62384"
       style="fill:none;fill-opacity:1;stroke:#000000;stroke-width:2.25;stroke-linecap:square;stroke-linejoin:miter;stroke-miterlimit:4;stroke-dasharray:none;stroke-dashoffset:0;stroke-opacity:1"
       id="use3909" />
    <rect
       width="52.671261"
       height="52.671261"
       rx="7.7852464"
       ry="7.7852464"
       x="572.50397"
       y="331.62384"
       style="fill:none;fill-opacity:1;stroke:#000000;stroke-width:2.25;stroke-linecap:square;stroke-linejoin:miter;stroke-miterlimit:4;stroke-dasharray:none;stroke-dashoffset:0;stroke-opacity:1"
       id="use3911" />
    <rect
       width="52.671261"
       height="52.671261"
       rx="7.7852464"
       ry="7.7852464"
       x="638.40948"
       y="331.62384"
       style="fill:none;fill-opacity:1;stroke:#000000;stroke-width:2.25;stroke-linecap:square;stroke-linejoin:miter;stroke-miterlimit:4;stroke-dasharray:none;stroke-dashoffset:0;stroke-opacity:1"
       id="use3913" />
    <rect
       width="52.671261"
       height="52.671261"
       rx="7.7852464"
       ry="7.7852464"
       x="704.315"
       y="331.62384"
       style="fill:none;fill-opacity:1;stroke:#000000;stroke-width:2.25;stroke-linecap:square;stroke-linejoin:miter;stroke-miterlimit:4;stroke-dasharray:none;stroke-dashoffset:0;stroke-opacity:1"
       id="use3915" />
    <rect
       width="52.671261"
       height="52.671261"
       rx="7.7852464"
       ry="7.7852464"
       x="770.22046"
       y="331.62384"
       style="fill:none;fill-opacity:1;stroke:#000000;stroke-width:2.25;stroke-linecap:square;stroke-linejoin:miter;stroke-miterlimit:4;stroke-dasharray:none;stroke-dashoffset:0;stroke-opacity:1"
       id="use3917" />
    <rect
       width="76.483505"
       height="52.671261"
       rx="7.7852464"
       ry="7.7852464"
       x="36.852917"
       y="196.88356"
       style="opacity:1;fill:none;fill-opacity:1;stroke:#000000;stroke-width:2.25;stroke-linecap:square;stroke-linejoin:miter;stroke-miterlimit:4;stroke-dasharray:none;stroke-dashoffset:0;stroke-opacity:1"
       id="rect3921" />
    <rect
       width="93.681244"
       height="52.671261"
       rx="7.7852464"
       ry="7.7852464"
       x="36.852917"
       y="264.22134"
       style="opacity:1;fill:none;fill-opacity:1;stroke:#000000;stroke-width:2.25;stroke-linecap:square;stroke-linejoin:miter;stroke-miterlimit:4;stroke-dasharray:none;stroke-dashoffset:0;stroke-opacity:1"
       id="rect3923" />
    <rect
       width="61.93158"
       height="52.671261"
       rx="7.7852464"
       ry="7.7852464"
       x="36.852917"
       y="331.62384"
       style="opacity:1;fill:none;fill-opacity:1;stroke:#000000;stroke-width:2.25;stroke-linecap:square;stroke-linejoin:miter;stroke-miterlimit:4;stroke-dasharray:none;stroke-dashoffset:0;stroke-opacity:1"
       id="rect3925" />
    <rect
       width="73.8377"
       height="52.671261"
       rx="7.7852464"
       ry="7.7852464"
       x="36.852917"
       y="399.8042"
       style="opacity:1;fill:none;fill-opacity:1;stroke:#000000;stroke-width:2.25;stroke-linecap:square;stroke-linejoin:miter;stroke-miterlimit:4;stroke-dasharray:none;stroke-dashoffset:0;stroke-opacity:1"
       id="rect4021" />
    <rect
       width="61.93158"
       height="52.671261"
       rx="7.7852464"
       ry="7.7852464"
       x="125.78251"
       y="399.8042"
       style="opacity:1;fill:none;fill-opacity:1;stroke:#000000;stroke-width:2.25;stroke-linecap:square;stroke-linejoin:miter;stroke-miterlimit:4;stroke-dasharray:none;stroke-dashoffset:0;stroke-opacity:1"
       id="rect4023" />
    <rect
       width="61.93158"
       height="52.671261"
       rx="7.7852464"
       ry="7.7852464"
       x="202.44826"
       y="399.8042"
       style="opacity:1;fill:none;fill-opacity:1;stroke:#000000;stroke-width:2.25;stroke-linecap:square;stroke-linejoin:miter;stroke-miterlimit:4;stroke-dasharray:none;stroke-dashoffset:0;stroke-opacity:1"
       id="rect4025" />
    <rect
       width="380.75113"
       height="52.671261"
       rx="7.7852464"
       ry="7.7852464"
       x="276.44827"
       y="399.8042"
       style="opacity:1;fill:none;fill-opacity:1;stroke:#000000;stroke-width:2.25;stroke-linecap:square;stroke-linejoin:miter;stroke-miterlimit:4;stroke-dasharray:none;stroke-dashoffset:0;stroke-opacity:1"
       id="rect4027" />
    <rect
       width="61.93158"
       height="52.671261"
       rx="7.7852464"
       ry="7.7852464"
       x="668.93488"
       y="399.8042"
       style="opacity:1;fill:none;fill-opacity:1;stroke:#000000;stroke-width:2.25;stroke-linecap:square;stroke-linejoin:miter;stroke-miterlimit:4;stroke-dasharray:none;stroke-dashoffset:0;stroke-opacity:1"
       id="rect4029" />
    <rect
       width="61.93158"
       height="52.671261"
       rx="7.7852464"
       ry="7.7852464"
       x="744.34033"
       y="399.8042"
       style="opacity:1;fill:none;fill-opacity:1;stroke:#000000;stroke-width:2.25;stroke-linecap:square;stroke-linejoin:miter;stroke-miterlimit:4;stroke-dasharray:none;stroke-dashoffset:0;stroke-opacity:1"
       id="rect4031" />
    <rect
       width="61.93158"
       height="52.671261"
       rx="7.7852464"
       ry="7.7852464"
       x="818.42285"
       y="399.8042"
       style="opacity:1;fill:none;fill-opacity:1;stroke:#000000;stroke-width:2.25;stroke-linecap:square;stroke-linejoin:miter;stroke-miterlimit:4;stroke-dasharray:none;stroke-dashoffset:0;stroke-opacity:1"
       id="rect4033" />
    <rect
       width="101.47603"
       height="52.671261"
       rx="7.7852459"
       ry="7.7852464"
       x="893.49506"
       y="399.8042"
       style="opacity:1;fill:none;fill-opacity:1;stroke:#000000;stroke-width:2.25;stroke-linecap:square;stroke-linejoin:miter;stroke-miterlimit:4;stroke-dasharray:none;stroke-dashoffset:0;stroke-opacity:1"
       id="rect4035" />
    <rect
       width="101.10686"
       height="52.671261"
       rx="7.7852464"
       ry="7.7852464"
       x="893.8642"
       y="129.41629"
       style="fill:none;fill-opacity:1;stroke:#000000;stroke-width:2.25;stroke-linecap:square;stroke-linejoin:miter;stroke-miterlimit:4;stroke-dasharray:none;stroke-dashoffset:0;stroke-opacity:1"
       id="rect4037" />
    <path
       d="M 988.47656,196.75412 C 992.0745,196.75412 994.97105,200.22634 994.97105,204.53937 L 994.97105,309.01172 C 994.97105,313.32475 992.0745,316.79697 988.47656,316.79697 L 940.53987,316.79697 C 940.53987,316.79697 935.63003,314.89201 935.73833,309.01172 C 936.00156,302.56257 935.95117,268.09593 935.83497,254.99658 C 935.71877,249.49531 932.05064,250.16518 932.05064,250.16518 L 920.06233,250.16518 C 917.84389,249.78528 915.94237,246.48507 915.94237,245.7409 C 915.94237,235.49914 915.94237,195.89387 915.94237,205.36586 C 915.61802,197.02595 919.26637,196.75412 921.33585,196.75412 C 938.04154,196.75412 988.47656,196.75412 988.47656,196.75412 z "
       style="fill:none;fill-opacity:1;stroke:#000000;stroke-width:2.25;stroke-linecap:square;stroke-linejoin:miter;stroke-miterlimit:4;stroke-dashoffset:0;stroke-opacity:1"
       id="rect4039" />
    <rect
       width="157.70181"
       height="52.671261"
       rx="7.7852459"
       ry="7.7852464"
       x="837.26917"
       y="331.62384"
       style="opacity:1;fill:none;fill-opacity:1;stroke:#000000;stroke-width:2.25;stroke-linecap:square;stroke-linejoin:miter;stroke-miterlimit:4;stroke-dasharray:none;stroke-dashoffset:0;stroke-opacity:1"
       id="rect4048" />
    <text
       x="55.245701"
       y="230.91901"
       style="font-size:19px;fill:#000000;font-family:DejaVu Sans"
       id="text69">Tab</text>
    <text
       x="42"
       y="298.25"
       style="font-size:19px;fill:#000000;font-family:DejaVu Sans"
       id="text71">Verr. Maj</text>
    <text
       x="47.833801"
       y="364.66299"
       style="font-size:19px;fill:#ff0000;font-family:DejaVu Sans"
       id="text73">Maj</text>
    <text
       x="56.095501"
       y="431.763"
       style="font-size:19px;fill:#000000;font-family:DejaVu Sans"
       id="text75">Ctrl</text>
    <text
       x="129.021"
       y="431.763"
       style="font-size:19px;fill:#000000;font-family:DejaVu Sans"
       id="text77">Super</text>
    <text
       x="220.452"
       y="431.763"
       style="font-size:19px;fill:#000000;font-family:DejaVu Sans"
       id="text79">Alt</text>
    <text
       x="672"
       y="431.763"
       style="font-size:19px;fill:#003eff;font-family:DejaVu Sans"
       id="text81">Alt Gr</text>
    <text
       x="748"
       y="431.763"
       style="font-size:19px;fill:#000000;font-family:DejaVu Sans"
       id="text83">Super</text>
    <text
       x="823"
       y="431.763"
       style="font-size:19px;fill:#000000;font-family:DejaVu Sans"
       id="text85">Menu</text>
    <text
       x="926.60199"
       y="431.763"
       style="font-size:19px;fill:#000000;font-family:DejaVu Sans"
       id="text87">Ctrl</text>
    <text
       x="891.625"
       y="364.66299"
       style="font-size:19px;fill:#ff0000;font-family:DejaVu Sans"
       id="text89">Maj</text>
    <text
       x="925"
       y="230.91901"
       style="font-size:19px;fill:#000000;font-family:DejaVu Sans"
       id="text91">Entrée</text>
    <text
       x="900.26703"
       y="149.31799"
       style="font-size:13px;fill:#000000;font-family:DejaVu Sans"
       id="text93">Retour Arrière</text>


    <text
       x="820.884093"
       y="242.40254"
       style="font-size:20px;fill:#003eff;font-family:DejaVu Sans Mono"
       >≠</text>

    <text
       x="333.622052"
       y="175.0"
       style="font-size:20px;fill:#003eff;font-family:DejaVu Sans Mono"
       >—</text>

    <text
       x="514.745521"
       y="352.20755"
       style="font-size:20px;fill:#ff0000;font-family:DejaVu Sans Mono"
       >M</text>

    <text
       x="448.840008"
       y="352.20755"
       style="font-size:20px;fill:#ff0000;font-family:DejaVu Sans Mono"
       >K</text>

    <text
       x="342.028982"
       y="352.20755"
       style="font-size:20px;fill:#ca00ff;font-family:DejaVu Sans Mono"
       >’</text>

    <text
       x="835.866156"
       y="175.0"
       style="font-size:20px;fill:#000000;font-family:DejaVu Sans Mono"
       >]</text>

    <text
       x="359.545502"
       y="242.40254"
       style="font-size:20px;fill:#003eff;font-family:DejaVu Sans Mono"
       >œ</text>

    <text
       x="605.651034"
       y="352.20755"
       style="font-size:20px;fill:#008000;font-family:DejaVu Sans Mono"
       >̛</text>

    <text
       x="45.0"
       y="175.0"
       style="font-size:20px;fill:#000000;font-family:DejaVu Sans Mono"
       >$</text>

    <text
       x="440.433078"
       y="150.0"
       style="font-size:20px;fill:#ff0000;font-family:DejaVu Sans Mono"
       >8</text>

    <text
       x="664.073067"
       y="242.40254"
       style="font-size:20px;fill:#000000;font-family:DejaVu Sans Mono"
       >l</text>

    <text
       x="598.167554"
       y="242.40254"
       style="font-size:20px;fill:#000000;font-family:DejaVu Sans Mono"
       >d</text>

    <text
       x="268.639989"
       y="242.40254"
       style="font-size:20px;fill:#000000;font-family:DejaVu Sans Mono"
       >p</text>

    <text
       x="202.734476"
       y="242.40254"
       style="font-size:20px;fill:#000000;font-family:DejaVu Sans Mono"
       >w</text>

    <text
       x="136.828963"
       y="242.40254"
       style="font-size:20px;fill:#000000;font-family:DejaVu Sans Mono"
       >b</text>

    <text
       x="532.262041"
       y="242.40254"
       style="font-size:20px;fill:#000000;font-family:DejaVu Sans Mono"
       >v</text>

    <text
       x="466.356528"
       y="242.40254"
       style="font-size:20px;fill:#008000;font-family:DejaVu Sans Mono"
       >´</text>

    <text
       x="400.451015"
       y="242.40254"
       style="font-size:20px;fill:#008000;font-family:DejaVu Sans Mono"
       >`</text>

    <text
       x="334.545502"
       y="242.40254"
       style="font-size:20px;fill:#000000;font-family:DejaVu Sans Mono"
       >o</text>

    <text
       x="374.527565"
       y="150.0"
       style="font-size:20px;fill:#ff0000;font-family:DejaVu Sans Mono"
       >9</text>

    <text
       x="178.558733"
       y="284.80505"
       style="font-size:20px;fill:#ca00ff;font-family:DejaVu Sans Mono"
       >Æ</text>

    <text
       x="573.991811"
       y="284.80505"
       style="font-size:20px;fill:#ca00ff;font-family:DejaVu Sans Mono"
       >™</text>

    <text
       x="417.180785"
       y="284.80505"
       style="font-size:20px;fill:#ff0000;font-family:DejaVu Sans Mono"
       >?</text>

    <text
       x="689.073067"
       y="242.40254"
       style="font-size:20px;fill:#008000;font-family:DejaVu Sans Mono"
       >/</text>

    <text
       x="837.613863"
       y="309.80505"
       style="font-size:20px;fill:#003eff;font-family:DejaVu Sans Mono"
       >’</text>

    <text
       x="506.338591"
       y="150.0"
       style="font-size:20px;fill:#ff0000;font-family:DejaVu Sans Mono"
       >0</text>

    <text
       x="508.086298"
       y="309.80505"
       style="font-size:20px;fill:#008000;font-family:DejaVu Sans Mono"
       >¸</text>

    <text
       x="267.716539"
       y="175.0"
       style="font-size:20px;fill:#003eff;font-family:DejaVu Sans Mono"
       >»</text>

    <text
       x="903.519376"
       y="284.80505"
       style="font-size:20px;fill:#ca00ff;font-family:DejaVu Sans Mono"
       >🄯</text>

    <text
       x="729.97858"
       y="217.40254"
       style="font-size:20px;fill:#ff0000;font-family:DejaVu Sans Mono"
       >J</text>

    <text
       x="754.97858"
       y="217.40254"
       style="font-size:20px;fill:#ca00ff;font-family:DejaVu Sans Mono"
       >☯</text>

    <text
       x="861.789606"
       y="217.40254"
       style="font-size:20px;fill:#ff0000;font-family:DejaVu Sans Mono"
       >%</text>

    <text
       x="778.367573"
       y="352.20755"
       style="font-size:20px;fill:#ff0000;font-family:DejaVu Sans Mono"
       >F</text>

    <text
       x="473.840008"
       y="377.20755"
       style="font-size:20px;fill:#003eff;font-family:DejaVu Sans Mono"
       >~</text>

    <text
       x="442.180785"
       y="284.80505"
       style="font-size:20px;fill:#008000;font-family:DejaVu Sans Mono"
       >,</text>

    <text
       x="671.556547"
       y="352.20755"
       style="font-size:20px;fill:#ca00ff;font-family:DejaVu Sans Mono"
       >†</text>

    <text
       x="771.70835"
       y="309.80505"
       style="font-size:20px;fill:#008000;font-family:DejaVu Sans Mono"
       >~</text>

    <text
       x="614.897324"
       y="284.80505"
       style="font-size:20px;fill:#ff0000;font-family:DejaVu Sans Mono"
       >S</text>

    <text
       x="548.991811"
       y="284.80505"
       style="font-size:20px;fill:#ff0000;font-family:DejaVu Sans Mono"
       >T</text>

    <text
       x="663.149617"
       y="175.0"
       style="font-size:20px;fill:#003eff;font-family:DejaVu Sans Mono"
       >⩽</text>

    <text
       x="680.802837"
       y="284.80505"
       style="font-size:20px;fill:#ff0000;font-family:DejaVu Sans Mono"
       >R</text>

    <text
       x="712.46206"
       y="352.20755"
       style="font-size:20px;fill:#ff0000;font-family:DejaVu Sans Mono"
       >H</text>

    <text
       x="227.734476"
       y="217.40254"
       style="font-size:20px;fill:#ca00ff;font-family:DejaVu Sans Mono"
       >♿</text>

    <text
       x="557.262041"
       y="242.40254"
       style="font-size:20px;fill:#008000;font-family:DejaVu Sans Mono"
       >ˇ</text>

    <text
       x="572.244104"
       y="150.0"
       style="font-size:20px;fill:#ff0000;font-family:DejaVu Sans Mono"
       >2</text>

    <text
       x="359.545502"
       y="217.40254"
       style="font-size:20px;fill:#ca00ff;font-family:DejaVu Sans Mono"
       >Œ</text>

    <text
       x="860.866156"
       y="175.0"
       style="font-size:20px;fill:#003eff;font-family:DejaVu Sans Mono"
       >°</text>

    <text
       x="639.897324"
       y="309.80505"
       style="font-size:20px;fill:#003eff;font-family:DejaVu Sans Mono"
       >﷔</text>

    <text
       x="400.451015"
       y="217.40254"
       style="font-size:20px;fill:#008000;font-family:DejaVu Sans Mono"
       >^</text>

    <text
       x="351.275272"
       y="309.80505"
       style="font-size:20px;fill:#000000;font-family:DejaVu Sans Mono"
       >e</text>

    <text
       x="417.180785"
       y="309.80505"
       style="font-size:20px;fill:#000000;font-family:DejaVu Sans Mono"
       >,</text>

    <text
       x="483.086298"
       y="309.80505"
       style="font-size:20px;fill:#000000;font-family:DejaVu Sans Mono"
       >c</text>

    <text
       x="548.991811"
       y="309.80505"
       style="font-size:20px;fill:#000000;font-family:DejaVu Sans Mono"
       >t</text>

    <text
       x="671.556547"
       y="377.20755"
       style="font-size:20px;fill:#008000;font-family:DejaVu Sans Mono"
       >µ</text>

    <text
       x="153.558733"
       y="309.80505"
       style="font-size:20px;fill:#000000;font-family:DejaVu Sans Mono"
       >a</text>

    <text
       x="219.464246"
       y="309.80505"
       style="font-size:20px;fill:#000000;font-family:DejaVu Sans Mono"
       >u</text>

    <text
       x="285.369759"
       y="309.80505"
       style="font-size:20px;fill:#000000;font-family:DejaVu Sans Mono"
       >i</text>

    <text
       x="623.167554"
       y="242.40254"
       style="font-size:20px;fill:#003eff;font-family:DejaVu Sans Mono"
       >﷗</text>

    <text
       x="614.897324"
       y="309.80505"
       style="font-size:20px;fill:#000000;font-family:DejaVu Sans Mono"
       >s</text>

    <text
       x="680.802837"
       y="309.80505"
       style="font-size:20px;fill:#000000;font-family:DejaVu Sans Mono"
       >r</text>

    <text
       x="251.123469"
       y="352.20755"
       style="font-size:20px;fill:#ff0000;font-family:DejaVu Sans Mono"
       >Y</text>

    <text
       x="333.622052"
       y="150.0"
       style="font-size:20px;fill:#ca00ff;font-family:DejaVu Sans Mono"
       >„</text>

    <text
       x="399.527565"
       y="175.0"
       style="font-size:20px;fill:#003eff;font-family:DejaVu Sans Mono"
       >÷</text>

    <text
       x="161.828963"
       y="242.40254"
       style="font-size:20px;fill:#003eff;font-family:DejaVu Sans Mono"
       >|</text>

    <text
       x="185.217956"
       y="352.20755"
       style="font-size:20px;fill:#ff0000;font-family:DejaVu Sans Mono"
       >Z</text>

    <text
       x="491.356528"
       y="217.40254"
       style="font-size:20px;fill:#ca00ff;font-family:DejaVu Sans Mono"
       >☠</text>

    <text
       x="407.934495"
       y="377.20755"
       style="font-size:20px;fill:#003eff;font-family:DejaVu Sans Mono"
       >¡</text>

    <text
       x="878.519376"
       y="309.80505"
       style="font-size:20px;fill:#000000;font-family:DejaVu Sans Mono"
       >\</text>

    <text
       x="483.086298"
       y="284.80505"
       style="font-size:20px;fill:#ff0000;font-family:DejaVu Sans Mono"
       >C</text>

    <text
       x="176.811026"
       y="150.0"
       style="font-size:20px;fill:#ff0000;font-family:DejaVu Sans Mono"
       >5</text>

    <text
       x="837.613863"
       y="284.80505"
       style="font-size:20px;fill:#008000;font-family:DejaVu Sans Mono"
       >̉</text>

    <text
       x="425.451015"
       y="217.40254"
       style="font-size:20px;fill:#ca00ff;font-family:DejaVu Sans Mono"
       ></text>

    <text
       x="771.70835"
       y="284.80505"
       style="font-size:20px;fill:#ca00ff;font-family:DejaVu Sans Mono"
       >⚓</text>

    <text
       x="242.716539"
       y="150.0"
       style="font-size:20px;fill:#ff0000;font-family:DejaVu Sans Mono"
       >3</text>

    <text
       x="176.811026"
       y="175.0"
       style="font-size:20px;fill:#000000;font-family:DejaVu Sans Mono"
       >&#x003c;</text>

    <text
       x="242.716539"
       y="175.0"
       style="font-size:20px;fill:#000000;font-family:DejaVu Sans Mono"
       >/</text>

    <text
       x="110.905513"
       y="175.0"
       style="font-size:20px;fill:#000000;font-family:DejaVu Sans Mono"
       >+</text>

    <text
       x="440.433078"
       y="175.0"
       style="font-size:20px;fill:#000000;font-family:DejaVu Sans Mono"
       >)</text>

    <text
       x="506.338591"
       y="175.0"
       style="font-size:20px;fill:#000000;font-family:DejaVu Sans Mono"
       >*</text>

    <text
       x="308.622052"
       y="175.0"
       style="font-size:20px;fill:#000000;font-family:DejaVu Sans Mono"
       >&#x0022;</text>

    <text
       x="374.527565"
       y="175.0"
       style="font-size:20px;fill:#000000;font-family:DejaVu Sans Mono"
       >(</text>

    <text
       x="308.622052"
       y="150.0"
       style="font-size:20px;fill:#ff0000;font-family:DejaVu Sans Mono"
       >1</text>

    <text
       x="572.244104"
       y="175.0"
       style="font-size:20px;fill:#000000;font-family:DejaVu Sans Mono"
       >-</text>

    <text
       x="638.149617"
       y="175.0"
       style="font-size:20px;fill:#000000;font-family:DejaVu Sans Mono"
       >></text>

    <text
       x="201.811026"
       y="175.0"
       style="font-size:20px;fill:#003eff;font-family:DejaVu Sans Mono"
       >⩾</text>

    <text
       x="573.991811"
       y="309.80505"
       style="font-size:20px;fill:#003eff;font-family:DejaVu Sans Mono"
       >﷕</text>

    <text
       x="227.734476"
       y="242.40254"
       style="font-size:20px;fill:#003eff;font-family:DejaVu Sans Mono"
       >⚜</text>

    <text
       x="729.05513"
       y="175.0"
       style="font-size:20px;fill:#003eff;font-family:DejaVu Sans Mono"
       >^</text>

    <text
       x="268.639989"
       y="217.40254"
       style="font-size:20px;fill:#ff0000;font-family:DejaVu Sans Mono"
       >P</text>

    <text
       x="334.545502"
       y="217.40254"
       style="font-size:20px;fill:#ff0000;font-family:DejaVu Sans Mono"
       >O</text>

    <text
       x="136.828963"
       y="217.40254"
       style="font-size:20px;fill:#ff0000;font-family:DejaVu Sans Mono"
       >B</text>

    <text
       x="878.519376"
       y="284.80505"
       style="font-size:20px;fill:#ff0000;font-family:DejaVu Sans Mono"
       > </text>

    <text
       x="399.527565"
       y="150.0"
       style="font-size:20px;fill:#ca00ff;font-family:DejaVu Sans Mono"
       >½</text>

    <text
       x="803.367573"
       y="352.20755"
       style="font-size:20px;fill:#ca00ff;font-family:DejaVu Sans Mono"
       >⛄</text>

    <text
       x="285.369759"
       y="284.80505"
       style="font-size:20px;fill:#ff0000;font-family:DejaVu Sans Mono"
       >I</text>

    <text
       x="705.802837"
       y="284.80505"
       style="font-size:20px;fill:#ca00ff;font-family:DejaVu Sans Mono"
       >®</text>

    <text
       x="376.275272"
       y="309.80505"
       style="font-size:20px;fill:#003eff;font-family:DejaVu Sans Mono"
       >€</text>

    <text
       x="794.960643"
       y="175.0"
       style="font-size:20px;fill:#003eff;font-family:DejaVu Sans Mono"
       >\</text>

    <text
       x="244.464246"
       y="284.80505"
       style="font-size:20px;fill:#ca00ff;font-family:DejaVu Sans Mono"
       >Ù</text>

    <text
       x="219.464246"
       y="284.80505"
       style="font-size:20px;fill:#ff0000;font-family:DejaVu Sans Mono"
       >U</text>

    <text
       x="746.70835"
       y="284.80505"
       style="font-size:20px;fill:#ff0000;font-family:DejaVu Sans Mono"
       >N</text>

    <text
       x="663.149617"
       y="150.0"
       style="font-size:20px;fill:#ca00ff;font-family:DejaVu Sans Mono"
       ></text>

    <text
       x="442.180785"
       y="309.80505"
       style="font-size:20px;fill:#003eff;font-family:DejaVu Sans Mono"
       >¿</text>

    <text
       x="153.558733"
       y="284.80505"
       style="font-size:20px;fill:#ff0000;font-family:DejaVu Sans Mono"
       >A</text>

    <text
       x="317.028982"
       y="352.20755"
       style="font-size:20px;fill:#ff0000;font-family:DejaVu Sans Mono"
       >X</text>

    <text
       x="161.828963"
       y="217.40254"
       style="font-size:20px;fill:#ca00ff;font-family:DejaVu Sans Mono"
       >_</text>

    <text
       x="754.97858"
       y="242.40254"
       style="font-size:20px;fill:#003eff;font-family:DejaVu Sans Mono"
       >☮</text>

    <text
       x="110.905513"
       y="150.0"
       style="font-size:20px;fill:#ff0000;font-family:DejaVu Sans Mono"
       >7</text>

    <text
       x="531.338591"
       y="175.0"
       style="font-size:20px;fill:#003eff;font-family:DejaVu Sans Mono"
       >×</text>

    <text
       x="812.613863"
       y="309.80505"
       style="font-size:20px;fill:#000000;font-family:DejaVu Sans Mono"
       >'</text>

    <text
       x="746.70835"
       y="309.80505"
       style="font-size:20px;fill:#000000;font-family:DejaVu Sans Mono"
       >n</text>

    <text
       x="491.356528"
       y="242.40254"
       style="font-size:20px;fill:#003eff;font-family:DejaVu Sans Mono"
       >…</text>

    <text
       x="539.745521"
       y="377.20755"
       style="font-size:20px;fill:#008000;font-family:DejaVu Sans Mono"
       >¯</text>

    <text
       x="466.356528"
       y="217.40254"
       style="font-size:20px;fill:#ff0000;font-family:DejaVu Sans Mono"
       >’</text>

    <text
       x="276.123469"
       y="377.20755"
       style="font-size:20px;fill:#003eff;font-family:DejaVu Sans Mono"
       >{</text>

    <text
       x="135.905513"
       y="150.0"
       style="font-size:20px;fill:#ca00ff;font-family:DejaVu Sans Mono"
       >¬</text>

    <text
       x="803.367573"
       y="377.20755"
       style="font-size:20px;fill:#008000;font-family:DejaVu Sans Mono"
       >˛</text>

    <text
       x="45.0"
       y="150.0"
       style="font-size:20px;fill:#ff0000;font-family:DejaVu Sans Mono"
       >#</text>

    <text
       x="705.802837"
       y="309.80505"
       style="font-size:20px;fill:#008000;font-family:DejaVu Sans Mono"
       >˘</text>

    <text
       x="351.275272"
       y="284.80505"
       style="font-size:20px;fill:#ff0000;font-family:DejaVu Sans Mono"
       >E</text>

    <text
       x="293.639989"
       y="217.40254"
       style="font-size:20px;fill:#ca00ff;font-family:DejaVu Sans Mono"
       >§</text>

    <text
       x="478.147083"
       y="420.38791"
       style="font-size:20px;fill:#ca00ff;font-family:DejaVu Sans Mono"
       > </text>

    <text
       x="201.811026"
       y="150.0"
       style="font-size:20px;fill:#ca00ff;font-family:DejaVu Sans Mono"
       ></text>

    <text
       x="769.960643"
       y="175.0"
       style="font-size:20px;fill:#000000;font-family:DejaVu Sans Mono"
       >[</text>

    <text
       x="704.05513"
       y="175.0"
       style="font-size:20px;fill:#000000;font-family:DejaVu Sans Mono"
       >@</text>

    <text
       x="737.46206"
       y="377.20755"
       style="font-size:20px;fill:#008000;font-family:DejaVu Sans Mono"
       >̣</text>

    <text
       x="276.123469"
       y="352.20755"
       style="font-size:20px;fill:#ca00ff;font-family:DejaVu Sans Mono"
       >‘</text>

    <text
       x="820.884093"
       y="217.40254"
       style="font-size:20px;fill:#ca00ff;font-family:DejaVu Sans Mono"
       >′</text>

    <text
       x="704.05513"
       y="150.0"
       style="font-size:20px;fill:#ff0000;font-family:DejaVu Sans Mono"
       >6</text>

    <text
       x="646.556547"
       y="352.20755"
       style="font-size:20px;fill:#ff0000;font-family:DejaVu Sans Mono"
       >G</text>

    <text
       x="903.519376"
       y="309.80505"
       style="font-size:20px;fill:#003eff;font-family:DejaVu Sans Mono"
       >✈</text>

    <text
       x="623.167554"
       y="217.40254"
       style="font-size:20px;fill:#ca00ff;font-family:DejaVu Sans Mono"
       >☣</text>

    <text
       x="778.367573"
       y="377.20755"
       style="font-size:20px;fill:#000000;font-family:DejaVu Sans Mono"
       >f</text>

    <text
       x="860.866156"
       y="150.0"
       style="font-size:20px;fill:#ca00ff;font-family:DejaVu Sans Mono"
       >♥</text>

    <text
       x="407.934495"
       y="352.20755"
       style="font-size:20px;fill:#ca00ff;font-family:DejaVu Sans Mono"
       >·</text>

    <text
       x="605.651034"
       y="377.20755"
       style="font-size:20px;fill:#008000;font-family:DejaVu Sans Mono"
       >°</text>

    <text
       x="580.651034"
       y="352.20755"
       style="font-size:20px;fill:#ff0000;font-family:DejaVu Sans Mono"
       >Q</text>

    <text
       x="178.558733"
       y="309.80505"
       style="font-size:20px;fill:#003eff;font-family:DejaVu Sans Mono"
       >æ</text>

    <text
       x="664.073067"
       y="217.40254"
       style="font-size:20px;fill:#ff0000;font-family:DejaVu Sans Mono"
       >L</text>

    <text
       x="310.369759"
       y="309.80505"
       style="font-size:20px;fill:#008000;font-family:DejaVu Sans Mono"
       >¨</text>

    <text
       x="135.905513"
       y="175.0"
       style="font-size:20px;fill:#003eff;font-family:DejaVu Sans Mono"
       >±</text>

    <text
       x="453.147083"
       y="420.38791"
       style="font-size:20px;fill:#ff0000;font-family:DejaVu Sans Mono"
       > </text>

    <text
       x="886.789606"
       y="217.40254"
       style="font-size:20px;fill:#ca00ff;font-family:DejaVu Sans Mono"
       >″</text>

    <text
       x="425.451015"
       y="242.40254"
       style="font-size:20px;fill:#003eff;font-family:DejaVu Sans Mono"
       >`</text>

    <text
       x="812.613863"
       y="284.80505"
       style="font-size:20px;fill:#ff0000;font-family:DejaVu Sans Mono"
       >_</text>

    <text
       x="639.897324"
       y="284.80505"
       style="font-size:20px;fill:#ca00ff;font-family:DejaVu Sans Mono"
       >ſ</text>

    <text
       x="835.866156"
       y="150.0"
       style="font-size:20px;fill:#ff0000;font-family:DejaVu Sans Mono"
       >}</text>

    <text
       x="598.167554"
       y="217.40254"
       style="font-size:20px;fill:#ff0000;font-family:DejaVu Sans Mono"
       >D</text>

    <text
       x="597.244104"
       y="175.0"
       style="font-size:20px;fill:#003eff;font-family:DejaVu Sans Mono"
       >«</text>

    <text
       x="119.312443"
       y="377.20755"
       style="font-size:20px;fill:#000000;font-family:DejaVu Sans Mono"
       >/</text>

    <text
       x="769.960643"
       y="150.0"
       style="font-size:20px;fill:#ff0000;font-family:DejaVu Sans Mono"
       >{</text>

    <text
       x="202.734476"
       y="217.40254"
       style="font-size:20px;fill:#ff0000;font-family:DejaVu Sans Mono"
       >W</text>

    <text
       x="729.97858"
       y="242.40254"
       style="font-size:20px;fill:#000000;font-family:DejaVu Sans Mono"
       >j</text>

    <text
       x="795.884093"
       y="242.40254"
       style="font-size:20px;fill:#000000;font-family:DejaVu Sans Mono"
       >;</text>

    <text
       x="861.789606"
       y="242.40254"
       style="font-size:20px;fill:#000000;font-family:DejaVu Sans Mono"
       >=</text>

    <text
       x="886.789606"
       y="242.40254"
       style="font-size:20px;fill:#003eff;font-family:DejaVu Sans Mono"
       >‰</text>

    <text
       x="144.312443"
       y="377.20755"
       style="font-size:20px;fill:#003eff;font-family:DejaVu Sans Mono"
       ></text>

    <text
       x="729.05513"
       y="150.0"
       style="font-size:20px;fill:#ca00ff;font-family:DejaVu Sans Mono"
       >☭</text>

    <text
       x="597.244104"
       y="150.0"
       style="font-size:20px;fill:#ca00ff;font-family:DejaVu Sans Mono"
       >“</text>

    <text
       x="210.217956"
       y="377.20755"
       style="font-size:20px;fill:#003eff;font-family:DejaVu Sans Mono"
       >﷘</text>

    <text
       x="689.073067"
       y="217.40254"
       style="font-size:20px;fill:#ca00ff;font-family:DejaVu Sans Mono"
       >£</text>

    <text
       x="144.312443"
       y="352.20755"
       style="font-size:20px;fill:#ca00ff;font-family:DejaVu Sans Mono"
       ></text>

    <text
       x="638.149617"
       y="150.0"
       style="font-size:20px;fill:#ff0000;font-family:DejaVu Sans Mono"
       >4</text>

    <text
       x="794.960643"
       y="150.0"
       style="font-size:20px;fill:#ca00ff;font-family:DejaVu Sans Mono"
       >‚</text>

    <text
       x="310.369759"
       y="284.80505"
       style="font-size:20px;fill:#008000;font-family:DejaVu Sans Mono"
       >˙</text>

    <text
       x="70.0"
       y="150.0"
       style="font-size:20px;fill:#ca00ff;font-family:DejaVu Sans Mono"
       >¶</text>

    <text
       x="465.433078"
       y="175.0"
       style="font-size:20px;fill:#003eff;font-family:DejaVu Sans Mono"
       >−</text>

    <text
       x="267.716539"
       y="150.0"
       style="font-size:20px;fill:#ca00ff;font-family:DejaVu Sans Mono"
       >”</text>

    <text
       x="453.147083"
       y="445.38791"
       style="font-size:20px;fill:#000000;font-family:DejaVu Sans Mono"
       > </text>

    <text
       x="557.262041"
       y="217.40254"
       style="font-size:20px;fill:#ca00ff;font-family:DejaVu Sans Mono"
       >☢</text>

    <text
       x="382.934495"
       y="352.20755"
       style="font-size:20px;fill:#ff0000;font-family:DejaVu Sans Mono"
       >!</text>

    <text
       x="795.884093"
       y="217.40254"
       style="font-size:20px;fill:#ff0000;font-family:DejaVu Sans Mono"
       >:</text>

    <text
       x="342.028982"
       y="377.20755"
       style="font-size:20px;fill:#003eff;font-family:DejaVu Sans Mono"
       >}</text>

    <text
       x="508.086298"
       y="284.80505"
       style="font-size:20px;fill:#ca00ff;font-family:DejaVu Sans Mono"
       >©</text>

    <text
       x="210.217956"
       y="352.20755"
       style="font-size:20px;fill:#ca00ff;font-family:DejaVu Sans Mono"
       >☙</text>

    <text
       x="465.433078"
       y="150.0"
       style="font-size:20px;fill:#ca00ff;font-family:DejaVu Sans Mono"
       >¼</text>

    <text
       x="539.745521"
       y="352.20755"
       style="font-size:20px;fill:#ca00ff;font-family:DejaVu Sans Mono"
       >⛽</text>

    <text
       x="376.275272"
       y="284.80505"
       style="font-size:20px;fill:#008000;font-family:DejaVu Sans Mono"
       >¤</text>

    <text
       x="532.262041"
       y="217.40254"
       style="font-size:20px;fill:#ff0000;font-family:DejaVu Sans Mono"
       >V</text>

    <text
       x="70.0"
       y="175.0"
       style="font-size:20px;fill:#003eff;font-family:DejaVu Sans Mono"
       >–</text>

    <text
       x="737.46206"
       y="352.20755"
       style="font-size:20px;fill:#ca00ff;font-family:DejaVu Sans Mono"
       >‡</text>

    <text
       x="531.338591"
       y="150.0"
       style="font-size:20px;fill:#ca00ff;font-family:DejaVu Sans Mono"
       >¾</text>

    <text
       x="473.840008"
       y="352.20755"
       style="font-size:20px;fill:#ca00ff;font-family:DejaVu Sans Mono"
       >‑</text>

    <text
       x="244.464246"
       y="309.80505"
       style="font-size:20px;fill:#003eff;font-family:DejaVu Sans Mono"
       >ù</text>

    <text
       x="293.639989"
       y="242.40254"
       style="font-size:20px;fill:#003eff;font-family:DejaVu Sans Mono"
       >&#x0026;</text>

    <text
       x="478.147083"
       y="445.38791"
       style="font-size:20px;fill:#003eff;font-family:DejaVu Sans Mono"
       > </text>

    <text
       x="712.46206"
       y="377.20755"
       style="font-size:20px;fill:#000000;font-family:DejaVu Sans Mono"
       >h</text>

    <text
       x="646.556547"
       y="377.20755"
       style="font-size:20px;fill:#000000;font-family:DejaVu Sans Mono"
       >g</text>

    <text
       x="448.840008"
       y="377.20755"
       style="font-size:20px;fill:#000000;font-family:DejaVu Sans Mono"
       >k</text>

    <text
       x="382.934495"
       y="377.20755"
       style="font-size:20px;fill:#000000;font-family:DejaVu Sans Mono"
       >.</text>

    <text
       x="580.651034"
       y="377.20755"
       style="font-size:20px;fill:#000000;font-family:DejaVu Sans Mono"
       >q</text>

    <text
       x="514.745521"
       y="377.20755"
       style="font-size:20px;fill:#000000;font-family:DejaVu Sans Mono"
       >m</text>

    <text
       x="185.217956"
       y="377.20755"
       style="font-size:20px;fill:#000000;font-family:DejaVu Sans Mono"
       >z</text>

    <text
       x="317.028982"
       y="377.20755"
       style="font-size:20px;fill:#000000;font-family:DejaVu Sans Mono"
       >x</text>

    <text
       x="251.123469"
       y="377.20755"
       style="font-size:20px;fill:#000000;font-family:DejaVu Sans Mono"
       >y</text>

    <text
       x="119.312443"
       y="352.20755"
       style="font-size:20px;fill:#ff0000;font-family:DejaVu Sans Mono"
       >^</text>


  </g>
</svg>

